g:\sts_workspace\test_workspace\basic-app\src\main\java\com\mpc\demo\app\entity\Role.java
g:\sts_workspace\test_workspace\basic-app\src\main\java\com\mpc\demo\app\config\SecurityConfiguration.java
g:\sts_workspace\test_workspace\basic-app\src\main\java\com\mpc\demo\app\controller\LoginController.java
g:\sts_workspace\test_workspace\basic-app\src\main\java\com\mpc\demo\app\controller\SignUpController.java
g:\sts_workspace\test_workspace\basic-app\src\main\java\com\mpc\demo\app\dto\UserDto.java
g:\sts_workspace\test_workspace\basic-app\src\main\java\com\mpc\demo\app\Application.java
g:\sts_workspace\test_workspace\basic-app\src\main\java\com\mpc\demo\app\util\AppUtils.java
g:\sts_workspace\test_workspace\basic-app\src\main\java\com\mpc\demo\app\repo\RoleRepository.java
g:\sts_workspace\test_workspace\basic-app\src\main\java\com\mpc\demo\app\config\WebMvcConfig.java
g:\sts_workspace\test_workspace\basic-app\src\main\java\com\mpc\demo\app\service\StudentServiceImpl.java
g:\sts_workspace\test_workspace\basic-app\src\main\java\com\mpc\demo\app\dto\TradeDto.java
g:\sts_workspace\test_workspace\basic-app\src\main\java\com\mpc\demo\app\service\StudentService.java
g:\sts_workspace\test_workspace\basic-app\src\main\java\com\mpc\demo\app\util\package-info.java
g:\sts_workspace\test_workspace\basic-app\src\main\java\com\mpc\demo\app\entity\Student.java
g:\sts_workspace\test_workspace\basic-app\src\main\java\com\mpc\demo\app\entity\User.java
g:\sts_workspace\test_workspace\basic-app\src\main\java\com\mpc\demo\app\service\UserService.java
g:\sts_workspace\test_workspace\basic-app\src\main\java\com\mpc\demo\app\repo\StudentRepository.java
g:\sts_workspace\test_workspace\basic-app\src\main\java\com\mpc\demo\app\repo\UserRepository.java
g:\sts_workspace\test_workspace\basic-app\src\main\java\com\mpc\demo\app\service\UserServiceImpl.java
g:\sts_workspace\test_workspace\basic-app\src\main\java\com\mpc\demo\app\controller\HomeController.java
g:\sts_workspace\test_workspace\basic-app\src\main\java\com\mpc\demo\app\controller\StudentController.java
